2013-02-21 14:00:27 Logging started
2013-02-21 14:00:27 
Test ID: WiFi Signal: 
	Desc: Running...1 of 8 parts.  _id: 2131034125

2013-02-21 14:00:27 
SubTestID: WiFiRadioTests.1: 
	Part: 1/8
	Desc:Wi-Fi Radio on
	Result: OK
	Trace: 

2013-02-21 14:00:27 
SubTestID: WiFiRadioTests.2: 
	Part: 2/8
	Desc:BT WiFi in range
	Result: OK
	Trace: List of BT APs:
SSID=BTWiFi BSSID=02:ac:54:d2:54:02 Signal=-66 capabilities=
SSID=BTOpenzone BSSID=40:f4:ec:a2:b4:08 Signal=-68 capabilities=
SSID=BTOpenzone-B BSSID=12:ac:54:d2:54:02 Signal=-70 capabilities=
SSID=BTOpenzone BSSID=28:93:fe:c8:4c:58 Signal=-71 capabilities=
SSID=BTOpenzone BSSID=40:f4:ec:da:4f:b8 Signal=-82 capabilities=
SSID=BTOpenzone BSSID=28:93:fe:2f:82:9b Signal=-86 capabilities=
SSID=BTOpenzone BSSID=40:f4:ec:da:4f:d8 Signal=-88 capabilities=

List of all APs:
SSID=tablet BSSID=10:bf:48:3d:1b:05 Signal=-64
SSID=BTHub3-FRRG BSSID=00:ac:54:d2:54:02 Signal=-65
SSID=belkin.ffa BSSID=08:86:3b:55:bf:fa Signal=-65
SSID=Digisigns BSSID=28:93:fe:c8:4c:55 Signal=-70
SSID=GE67@husWeh5fa4t BSSID=28:93:fe:c8:4c:59 Signal=-72
SSID=Digisigns BSSID=40:f4:ec:b2:34:68 Signal=-73
SSID=Digisigns BSSID=40:f4:ec:b2:17:c8 Signal=-74
SSID=Digisigns BSSID=40:f4:ec:da:4f:b5 Signal=-75
SSID=Digisigns BSSID=28:93:fe:2f:81:f8 Signal=-76
SSID=GE67@husWeh5fa4t BSSID=40:f4:ec:b2:17:c5 Signal=-76
SSID=ARANCINI BSSID=00:50:7f:ea:37:10 Signal=-77
SSID=Wireless_Secure BSSID=00:17:c5:90:d8:69 Signal=-80
SSID=BTBusinessHub-943 BSSID=64:0f:28:32:19:41 Signal=-80
SSID=GE67@husWeh5fa4t BSSID=40:f4:ec:b2:34:65 Signal=-81
SSID=GE67@husWeh5fa4t BSSID=40:f4:ec:da:4f:d9 Signal=-81
SSID=BTBusinessHub-098 BSSID=64:0f:28:1e:b4:f1 Signal=-83
SSID=Digisigns BSSID=30:37:a6:c3:9a:58 Signal=-83
SSID=BTBusinessHub-653 BSSID=64:0f:28:e6:80:a9 Signal=-84
SSID=Digisigns BSSID=b8:be:bf:45:24:78 Signal=-87
SSID=GE67@husWeh5fa4t BSSID=28:93:fe:2f:82:95 Signal=-89
SSID=GE67@husWeh5fa4t BSSID=28:93:fe:2f:7b:c5 Signal=-89
SSID=David's very shiny IPhone BSSID=66:d8:84:4c:6f:14 Signal=-91
SSID=Digisigns BSSID=28:93:fe:2f:82:98 Signal=-94
SSID=BTBusinessHub-263 BSSID=00:21:7c:b0:a0:59 Signal=-89
SSID=BTWiFi BSSID=02:ac:54:d2:54:02 Signal=-66
SSID=BTOpenzone BSSID=40:f4:ec:a2:b4:08 Signal=-68
SSID=BTOpenzone-B BSSID=12:ac:54:d2:54:02 Signal=-70
SSID=_Free Westfield WiFi BSSID=28:93:fe:c8:4c:54 Signal=-71
SSID=BTOpenzone BSSID=28:93:fe:c8:4c:58 Signal=-71
SSID=WSLGUEST BSSID=40:f4:ec:b2:34:6a Signal=-73
SSID=WSLGUEST BSSID=40:f4:ec:da:4f:b7 Signal=-74
SSID=_The Cloud BSSID=40:f4:ec:b2:34:63 Signal=-74
SSID=_Free Westfield WiFi BSSID=40:f4:ec:da:4f:b4 Signal=-75
SSID=_The Cloud BSSID=40:f4:ec:da:4f:b3 Signal=-75
SSID=_Free Westfield WiFi BSSID=28:93:fe:2f:81:f4 Signal=-75
SSID=_Free Westfield WiFi BSSID=40:f4:ec:b2:17:c4 Signal=-76
SSID=_Free Westfield WiFi BSSID=40:f4:ec:b2:34:64 Signal=-78
SSID=BTOpenzone BSSID=40:f4:ec:da:4f:b8 Signal=-82
SSID=_The Cloud BSSID=30:37:a6:c3:9a:50 Signal=-83
SSID=WSLGUEST BSSID=b8:be:bf:45:24:7a Signal=-83
SSID=NealsYardRemedies BSSID=00:06:b1:31:67:05 Signal=-83
SSID=_Free Westfield WiFi BSSID=30:37:a6:c3:9a:54 Signal=-84
SSID=_Free Westfield WiFi BSSID=b8:be:bf:45:24:74 Signal=-85
SSID=BTOpenzone BSSID=28:93:fe:2f:82:9b Signal=-86
SSID=_Free Westfield WiFi BSSID=40:f4:ec:da:4f:d4 Signal=-87
SSID=BTOpenzone BSSID=40:f4:ec:da:4f:d8 Signal=-88
SSID=_The Cloud BSSID=28:93:fe:2f:82:93 Signal=-90
SSID=tsunami (adhoc) BSSID=56:11:e5:2f:95:de Signal=-90
SSID=WSLGUEST BSSID=28:93:fe:2f:7b:ca Signal=-91
SSID=_Free Westfield WiFi BSSID=28:93:fe:2f:82:94 Signal=-92
SSID=_Free Westfield WiFi BSSID=28:93:fe:d3:27:a4 Signal=-94
SSID=Lakeland Free Web Access BSSID=c0:62:6b:c4:67:e8 Signal=-91


2013-02-21 14:00:28 
SubTestID: WiFiRadioTests.3: 
	Part: 3/8
	Desc:Private networks
	Result: Fail
	Trace: SSID=tablet BSSID=10:bf:48:3d:1b:05 Signal=-64
SSID=BTHub3-FRRG BSSID=00:ac:54:d2:54:02 Signal=-65
SSID=belkin.ffa BSSID=08:86:3b:55:bf:fa Signal=-65
SSID=Digisigns BSSID=28:93:fe:c8:4c:55 Signal=-70
SSID=GE67@husWeh5fa4t BSSID=28:93:fe:c8:4c:59 Signal=-72
SSID=Digisigns BSSID=40:f4:ec:b2:34:68 Signal=-73
SSID=Digisigns BSSID=40:f4:ec:b2:17:c8 Signal=-74
SSID=Digisigns BSSID=40:f4:ec:da:4f:b5 Signal=-75
SSID=Digisigns BSSID=28:93:fe:2f:81:f8 Signal=-76
SSID=GE67@husWeh5fa4t BSSID=40:f4:ec:b2:17:c5 Signal=-76
SSID=ARANCINI BSSID=00:50:7f:ea:37:10 Signal=-77
SSID=Wireless_Secure BSSID=00:17:c5:90:d8:69 Signal=-80
SSID=BTBusinessHub-943 BSSID=64:0f:28:32:19:41 Signal=-80
SSID=GE67@husWeh5fa4t BSSID=40:f4:ec:b2:34:65 Signal=-81
SSID=GE67@husWeh5fa4t BSSID=40:f4:ec:da:4f:d9 Signal=-81
SSID=BTBusinessHub-098 BSSID=64:0f:28:1e:b4:f1 Signal=-83
SSID=Digisigns BSSID=30:37:a6:c3:9a:58 Signal=-83
SSID=BTBusinessHub-653 BSSID=64:0f:28:e6:80:a9 Signal=-84
SSID=Digisigns BSSID=b8:be:bf:45:24:78 Signal=-87
SSID=GE67@husWeh5fa4t BSSID=28:93:fe:2f:82:95 Signal=-89
SSID=GE67@husWeh5fa4t BSSID=28:93:fe:2f:7b:c5 Signal=-89
SSID=David's very shiny IPhone BSSID=66:d8:84:4c:6f:14 Signal=-91
SSID=Digisigns BSSID=28:93:fe:2f:82:98 Signal=-94
SSID=BTBusinessHub-263 BSSID=00:21:7c:b0:a0:59 Signal=-89
SSID=BTWiFi BSSID=02:ac:54:d2:54:02 Signal=-66
SSID=BTOpenzone BSSID=40:f4:ec:a2:b4:08 Signal=-68
SSID=BTOpenzone-B BSSID=12:ac:54:d2:54:02 Signal=-70
SSID=_Free Westfield WiFi BSSID=28:93:fe:c8:4c:54 Signal=-71
SSID=BTOpenzone BSSID=28:93:fe:c8:4c:58 Signal=-71
SSID=WSLGUEST BSSID=40:f4:ec:b2:34:6a Signal=-73
SSID=WSLGUEST BSSID=40:f4:ec:da:4f:b7 Signal=-74
SSID=_The Cloud BSSID=40:f4:ec:b2:34:63 Signal=-74
SSID=_Free Westfield WiFi BSSID=40:f4:ec:da:4f:b4 Signal=-75
SSID=_The Cloud BSSID=40:f4:ec:da:4f:b3 Signal=-75
SSID=_Free Westfield WiFi BSSID=28:93:fe:2f:81:f4 Signal=-75
SSID=_Free Westfield WiFi BSSID=40:f4:ec:b2:17:c4 Signal=-76
SSID=_Free Westfield WiFi BSSID=40:f4:ec:b2:34:64 Signal=-78
SSID=BTOpenzone BSSID=40:f4:ec:da:4f:b8 Signal=-82
SSID=_The Cloud BSSID=30:37:a6:c3:9a:50 Signal=-83
SSID=WSLGUEST BSSID=b8:be:bf:45:24:7a Signal=-83
SSID=NealsYardRemedies BSSID=00:06:b1:31:67:05 Signal=-83
SSID=_Free Westfield WiFi BSSID=30:37:a6:c3:9a:54 Signal=-84
SSID=_Free Westfield WiFi BSSID=b8:be:bf:45:24:74 Signal=-85
SSID=BTOpenzone BSSID=28:93:fe:2f:82:9b Signal=-86
SSID=_Free Westfield WiFi BSSID=40:f4:ec:da:4f:d4 Signal=-87
SSID=BTOpenzone BSSID=40:f4:ec:da:4f:d8 Signal=-88
SSID=_The Cloud BSSID=28:93:fe:2f:82:93 Signal=-90
SSID=tsunami (adhoc) BSSID=56:11:e5:2f:95:de Signal=-90
SSID=WSLGUEST BSSID=28:93:fe:2f:7b:ca Signal=-91
SSID=_Free Westfield WiFi BSSID=28:93:fe:2f:82:94 Signal=-92
SSID=_Free Westfield WiFi BSSID=28:93:fe:d3:27:a4 Signal=-94
SSID=Lakeland Free Web Access BSSID=c0:62:6b:c4:67:e8 Signal=-91


2013-02-21 14:00:28 
SubTestID: WiFiRadioTests.4: 
	Part: 4/8
	Desc:BT WiFi associated
	Result: OK
	Trace: Supplicant state=COMPLETED
Detailed supplicant state=OBTAINING_IPADDR
target AP:
SSID=BTOpenzone BSSID=28:93:fe:c8:4c:58 Signal=-71 COMPLETED



2013-02-21 14:00:28 
SubTestID: WiFiRadioTests.5: 
	Part: 5/8
	Desc:RSSI
	Result: OK
	Trace: Target AP=28:93:fe:c8:4c:58
Target AP signal level=-71dBm
Link Speed is 54 Mbps.


2013-02-21 14:00:28 
SubTestID: WiFiRadioTests.6: 
	Part: 6/8
	Desc:Link Speed
	Result: OK
	Trace: Target AP=28:93:fe:c8:4c:58
Target AP signal level=-71dBm
Link Speed is 54 Mbps.


2013-02-21 14:00:28 
SubTestID: WiFiRadioTests.7: 
	Part: 7/8
	Desc:Channel Contention
	Result: OK
	Trace: 
28:93:fe:c8:4c:58 is currently sharing the same channel as 17 other visible APs.

2013-02-21 14:00:28 
SubTestID: WiFiRadioTests.8: 
	Part: 8/8
	Desc:WiFi Packet Errors
	Result: OK
	Trace: Can't read WiFi driver statistics


2013-02-21 14:00:28 
Test Overall Result: : 
Complete...OK
Trace: No Trace

2013-02-21 14:00:28 
Test ID: WiFi Configuration: 
	Desc: Running...1 of 3 parts.  _id: 2131034226

2013-02-21 14:00:28 
SubTestID: WiFiConfigTests.1: 
	Part: 1/3
	Desc:WiFi App Install.
	Result: OK
	Trace: Checking installed package com.bt.mnie.wificonnectiontester
Checking installed package com.bt.mnie.haprecalltester
Checking installed package com.bt.mnie.wispr
found! stopping search


2013-02-21 14:00:28 
SubTestID: WiFiConfigTests.2: 
	Part: 2/3
	Desc:Open SSID Config.
	Result: OK
	Trace: Checking configured network BTOpenzone-B
Network BTOpenzone-B is a BT WiFi compatible SSID


2013-02-21 14:00:28 
SubTestID: WiFiConfigTests.3: 
	Part: 3/3
	Desc:802.1x SSID Config.
	Result: Fail
	Trace: Checking configured network BTOpenzone-B
Checking configured network BTFON
Checking configured network BTVOYAGER2091-32
Checking configured network CenterParcs
Checking configured network BTWiFi
Checking configured network FONERA
Checking configured network FON_ZON_FREE_INTERNET
Checking configured network FON_COMSTAR
Checking configured network FON_MTS
Checking configured network BTOpenzone-H
Checking configured network TRINITY
Checking configured network Thomson13CE94
Checking configured network Harlequin
Checking configured network Network19
Checking configured network Convergence2A
Checking configured network Convergence2B
Checking configured network AURA WIFI
Checking configured network kubi
Checking configured network guestnet
Checking configured network BarFi Free
Checking configured network FON_FREE_INTERNET
Checking configured network BTHomeHub-DF27
Checking configured network BTWiFi-with-FON
Checking configured network CampingLaPlage
Checking configured network Aircoach_WiFi
Checking configured network GrandCanalWifi
Checking configured network Westin Dublin
Checking configured network Dublin Airport Free WiFi
Checking configured network BUTTANDOYSTER
Checking configured network BTHub3-Z2FJ
Checking configured network alcatel1
Checking configured network Waterstones WiFi
Checking configured network BTOpenzone
Checking configured network Boingo Hotspot
Checking configured network Rm86ADSL
Checking configured network RM86ADSL


2013-02-21 14:00:28 
Test Overall Result: : 
Complete...OK
Trace: No Trace

2013-02-21 14:00:28 
Test ID: IP Configuration: 
	Desc: Running...1 of 6 parts.  _id: 2131034213

2013-02-21 14:00:28 
SubTestID: WiFiDHCPTests.1: 
	Part: 1/6
	Desc:DHCP Configuration.
	Result: Fail
	Trace: DHCP server address /1.1.1.1 is not in the expected range for BT WiFi APs

2013-02-21 14:00:28 
SubTestID: WiFiDHCPTests.2: 
	Part: 2/6
	Desc:IP Address.
	Result: OK
	Trace: IP Address /10.66.120.60 is in the expected range for a BT WiFi Hotspot


2013-02-21 14:00:28 
SubTestID: WiFiDHCPTests.3: 
	Part: 3/6
	Desc:DNS Configuration.
	Result: OK
	Trace: DNS Server has expected address
DNS lookup of www.google.com succeeded


2013-02-21 14:00:28 
SubTestID: WiFiDHCPTests.4: 
	Part: 4/6
	Desc:IP Address Lease Valid.
	Result: OK
	Trace: DHCP lease is valid and expires at 21 Feb 2013 14:15:00 GMT


2013-02-21 14:00:28 
SubTestID: WiFiDHCPTests.5: 
	Part: 5/6
	Desc:Gateway HW Address.
	Result: OK
	Trace: MAC address of gateway found in ARP table =b4:a4:e3:3b:07:41
Comparing gateway MAC with current BSSID=28:93:fe:c8:4c:58
Gateway MAC is compatible with current BSSID


2013-02-21 14:00:28 
SubTestID: WiFiDHCPTests.6: 
	Part: 6/6
	Desc:Pinhole.
	Result: OK
	Trace: Opening pinhole connection to http://mail.bt.com/
Received HTTP Response code=302

2013-02-21 14:00:28 
Test Overall Result: : 
Complete...OK
Trace: No Trace

2013-02-21 14:00:29 
Test ID: Internet Access: 
	Desc: Running...1 of 7 parts.  _id: 2131034235

2013-02-21 14:00:29 
SubTestID: WiFiGlobalTests.1: 
	Part: 1/7
	Desc:Captive Portal IP Address.
	Result: OK
	Trace: IP address of www.btopenzone.com has expected site local address of: 192.168.23.21


2013-02-21 14:00:30 
SubTestID: WiFiGlobalTests.2: 
	Part: 2/7
	Desc:Captive Portal accessibility.
	Result: OK
	Trace: 
Attempting to access: https://www.btopenzone.com:8443
About to connect: time=4ms
Completed connect: time=243ms
About to read input stream: time=243ms
Finished reading input stream: time=274ms

Received response code:302 Moved Temporarily

Being redirected to: https://www.btopenzone.com:8443/secure/home

Attempting to access: https://www.btopenzone.com:8443/secure/home
About to connect: time=277ms
Completed connect: time=278ms
About to read input stream: time=278ms
Finished reading input stream: time=306ms

Received response code:302 Moved Temporarily

Being redirected to: https://connect.btinternet.com:443/TBBWireless/jsp/TBBStatus.jsp;jsessionid=71lk9vtge3nba?xhtmlLogoff=https://www.btopenzone.com:8443/accountLogoff/home&username=clare.l.patten@btinternet.com

Attempting to access: https://connect.btinternet.com:443/TBBWireless/jsp/TBBStatus.jsp;jsessionid=71lk9vtge3nba?xhtmlLogoff=https://www.btopenzone.com:8443/accountLogoff/home&username=clare.l.patten@btinternet.com
About to connect: time=311ms
Completed connect: time=814ms
About to read input stream: time=814ms
Finished reading input stream: time=868ms

Received response code:200 OK


2013-02-21 14:00:30 
SubTestID: WiFiGlobalTests.3: 
	Part: 3/7
	Desc:ServerCertificates
	Result: OK
	Trace: Certificate chain OK.

Domain: www.btopenzone.com

X.509 Certificate:
[
[
  Version: V3
  Subject: CN=www.btopenzone.com,OU=Terms of use at www.verisign.com/rpa (c)05,OU=BT Retail,O=British Telecommunications plc,L=LONDON,ST=LONDON,C=GB,2.5.4.5=#13083031383030303030,2.5.4.15=#131450726976617465204f7267616e697a6174696f6e,1.3.6.1.4.1.311.60.2.1.3=#13024742
  Signature Algorithm: SHA1withRSA, params unparsed, OID = 1.2.840.113549.1.1.5
  Key: RSA Public Key
            modulus: b1b78b119dd55124988cf6aa09ad51b54fa780110dc1ecc56fdb25ab9ed148051020b9fbfdd29f6908af9db263181d4c4c5b983d9bdf05147076e7c1b414be5c2f2ba4640373ed474d87bcd424393ea6fbf4cea2431d7ab9d6ea023c31ca491db9cf1bfff3f205b9950499b29621139c6a94911c28c0b4aa801cd49310eca0e4d9cf6ea1ebc20cdf4d9bc3aafdffc4b5f44be6c9e96bb139e0329847dd01cc0661542d63fd9d82e84016492548aff028de0c1399eabaef424be1adeae5271a913ee9c800a4ecba298508a7c5abdc567edd68ae838977fe0510c11cdf0ed4249041d1f8eda69fc16ef74be441fe443ef4596931f1afc03838e6fe1423392c7349
    public exponent: 10001

  Validity: [From: Thu May 17 01:00:00 GMT+01:00 2012
               To: Thu Jul 17 00:59:59 GMT+01:00 2014]
  Issuer: CN=VeriSign Class 3 Extended Validation SSL CA,OU=Terms of use at https://www.verisign.com/rpa (c)06,OU=VeriSign Trust Network,O=VeriSign\, Inc.,C=US
  Serial Number: 85558056281241545520541257651146462719

  Extensions: [

    [1]: OID: 2.5.29.19, Critical: false
    BasicConstraints [
      CA: false
      pathLenConstraint: 2147483647
    ]

    [2]: OID: 2.5.29.15, Critical: false
    KeyUsage [
      digitalSignature
      keyEncipherment
    ]

    [3]: OID: 2.5.29.31, Critical: false
    CRL Distribution Points: [
      [1]
      Distribution Point: [
        Distribution Point Name: [
          uniformResourceIdentifier[6]: http://EVSecure-crl.verisign.com/EVSecure2006.crl
        ]
      ]
    ]

    [4]: OID: 2.5.29.32, Critical: false
    CertificatePolicies [
      Policy Identifier [2.16.840.1.113733.1.7.23.6]
    ]

    [5]: OID: 2.5.29.37, Critical: false
    Extended Key Usage: [ "1.3.6.1.5.5.7.3.1", "1.3.6.1.5.5.7.3.2" ]

    [6]: OID: 2.5.29.35, Critical: false
    AuthorityKeyIdentifier [
      keyIdentifier:
        0000 fc 8a 50 ba 9e b9 25 5a  7b 55 85 4f 95 00 63 8f  ü.Pº.¹%Z{U.O..c.
        0010 e9 58 6b 43                                       éXkC
    ]

    [7]: OID: 1.3.6.1.5.5.7.1.1, Critical: false
    AccessDescriptions:

-- AccessDescription:
accessMethod:  1.3.6.1.5.5.7.48.1
accessLocation:  uniformResourceIdentifier[6]: http://ocsp.verisign.com
-- AccessDescription END

-- AccessDescription:
accessMethod:  1.3.6.1.5.5.7.48.2
accessLocation:  uniformResourceIdentifier[6]: http://EVSecure-aia.verisign.com/EVSecure2006.cer
-- AccessDescription END

    [8]: OID: 1.3.6.1.5.5.7.1.12, Critical: false
    Unknown Extension
    Unparsed Extension Value:
    0000 30 60 a1 5e a0 5c 30 5a  30 58 30 56 16 09 69 6d  0`¡^ \0Z0X0V..im
    0010 61 67 65 2f 67 69 66 30  21 30 1f 30 07 06 05 2b  age/gif0!0.0...+
    0020 0e 03 02 1a 04 14 4b 6b  b9 28 96 06 0c bb d0 52  ......Kk¹(...»ÐR
    0030 38 9b 29 ac 4b 07 8b 21  05 18 30 26 16 24 68 74  8.)¬K..!..0&.$ht
    0040 74 70 3a 2f 2f 6c 6f 67  6f 2e 76 65 72 69 73 69  tp://logo.verisi
    0050 67 6e 2e 63 6f 6d 2f 76  73 6c 6f 67 6f 31 2e 67  gn.com/vslogo1.g
    0060 69 66                                             if
  ]
]
  Algorithm: [SHA1withRSA, params unparsed, OID = 1.2.840.113549.1.1.5]
  Signature Value:
0000 44 3e 1d 63 cc a7 18 5d  b8 a2 56 64 b8 6a 12 5a  D>.cÌ§.]¸¢Vd¸j.Z
0010 90 3a 02 c6 79 fe 7d c0  02 88 a5 76 1d 61 7f 61  .:.Æyþ}À..¥v.a.a
0020 f6 47 d2 97 75 aa d0 2f  b7 74 7d 5f bd bf 84 b9  öGÒ.uªÐ/·t}_½¿.¹
0030 a7 12 b9 88 97 b6 70 0d  5a 62 77 36 b1 ae ff 93  §.¹..¶p.Zbw6±®ÿ.
0040 9d f7 83 d9 63 91 f6 62  7f e7 bf 94 f6 b7 5d 6d  .÷.Ùc.öb.ç¿.ö·]m
0050 6f 78 cf b9 11 e2 b3 af  35 4b 5b 3d b7 37 90 bd  oxÏ¹.â³¯5K[=·7.½
0060 e3 fd 99 6d f4 d8 d6 f9  00 56 eb 97 46 a4 64 1f  ãý.môØÖù.Vë.F¤d.
0070 9a 55 ae f9 92 c1 6d 64  36 a9 25 9b de 8b 24 61  .U®ù.Ámd6©%.Þ.$a
0080 56 84 a4 5e dc a9 5c 2c  fe 84 2f d5 f9 f5 c1 ed  V.¤^Ü©\,þ./ÕùõÁí
0090 3b 6b 16 e5 63 96 5f 71  52 7d ed 38 9c ca 0c 51  ;k.åc._qR}í8.Ê.Q
00a0 e0 0c f8 10 f3 11 eb ed  76 a3 90 90 56 a2 b7 00  à.ø.ó.ëív£..V¢·.
00b0 2c 66 11 2c aa 16 80 c2  f1 fc e2 00 e5 b5 a2 c8  ,f.,ª..Âñüâ.åµ¢È
00c0 b3 e0 22 82 53 36 42 2d  c6 23 41 44 8f 0b ef 60  ³à".S6B-Æ#AD..ï`
00d0 b9 46 a5 14 29 fc 35 d0  9b ba 58 fd 1d c1 27 02  ¹F¥.)ü5Ð.ºXý.Á'.
00e0 4f 1b f4 af 4b 9e 96 09  a7 39 d3 82 b9 54 ab c6  O.ô¯K...§9Ó.¹T«Æ
00f0 6f 17 2d fc c6 24 43 29  ce 29 fb 70 36 01 09 0d  o.-üÆ$C)Î)ûp6...
]

X.509 Certificate:
[
[
  Version: V3
  Subject: CN=VeriSign Class 3 Extended Validation SSL CA,OU=Terms of use at https://www.verisign.com/rpa (c)06,OU=VeriSign Trust Network,O=VeriSign\, Inc.,C=US
  Signature Algorithm: SHA1withRSA, params unparsed, OID = 1.2.840.113549.1.1.5
  Key: RSA Public Key
            modulus: 98dba055eb9cfd1779e39a6e141db15b982387166e87769cb5383bb5a07ab407630919e62a8848a9e79db6305a08970cecaae416697262239afb7a542898c50c2db7d722b6c8f93817c7ddda31469a94148e9eee78a0b722d44954974de5745b92bcec6c2cdfe7c1b61b1a556b6608037f45af9a33f110c06c994a922431086ddd023e61767878b6ed7e37ae6cf389e1b7e1dc15ccb7569f80a0b1057f4e3715ffb72f1e8f06383f50b76928a3b5665f361a5248436652dfa2924fd31860bee3ea5e197105bf9e1c6c6872256fb37b73c96dbd12ff9b41325ef4e87ec50ba34c64d14ebc260865fb19975878e133bfed683eb127456fc0e2ec9769f75cd3f751
    public exponent: 10001

  Validity: [From: Wed Nov 08 00:00:00 GMT 2006
               To: Mon Nov 07 23:59:59 GMT 2016]
  Issuer: CN=VeriSign Class 3 Public Primary Certification Authority - G5,OU=(c) 2006 VeriSign\, Inc. - For authorized use only,OU=VeriSign Trust Network,O=VeriSign\, Inc.,C=US
  Serial Number: 121579451771502689459931452667480057963

  Extensions: [

    [1]: OID: 2.5.29.14, Critical: false
    SubjectKeyIdentifier: [
    0000 fc 8a 50 ba 9e b9 25 5a  7b 55 85 4f 95 00 63 8f  ü.Pº.¹%Z{U.O..c.
    0010 e9 58 6b 43                                       éXkC
    ]

    [2]: OID: 2.5.29.19, Critical: true
    BasicConstraints [
      CA: true
      pathLenConstraint: 0
    ]

    [3]: OID: 2.5.29.32, Critical: false
    CertificatePolicies [
      Policy Identifier [2.5.29.32.0]
    ]

    [4]: OID: 2.5.29.31, Critical: false
    CRL Distribution Points: [
      [1]
      Distribution Point: [
        Distribution Point Name: [
          uniformResourceIdentifier[6]: http://EVSecure-crl.verisign.com/pca3-g5.crl
        ]
      ]
    ]

    [5]: OID: 2.5.29.15, Critical: true
    KeyUsage [
      keyCertSign
      cRLSign
    ]

    [6]: OID: 2.16.840.1.113730.1.1, Critical: false
    Unknown Extension
    Unparsed Extension Value:
    0000 03 02 01 06                                       ....

    [7]: OID: 1.3.6.1.5.5.7.1.12, Critical: false
    Unknown Extension
    Unparsed Extension Value:
    0000 30 5f a1 5d a0 5b 30 59  30 57 30 55 16 09 69 6d  0_¡] [0Y0W0U..im
    0010 61 67 65 2f 67 69 66 30  21 30 1f 30 07 06 05 2b  age/gif0!0.0...+
    0020 0e 03 02 1a 04 14 8f e5  d3 1a 86 ac 8d 8e 6b c3  .......åÓ..¬..kÃ
    0030 cf 80 6a d4 48 18 2c 7b  19 2e 30 25 16 23 68 74  Ï.jÔH.,{..0%.#ht
    0040 74 70 3a 2f 2f 6c 6f 67  6f 2e 76 65 72 69 73 69  tp://logo.verisi
    0050 67 6e 2e 63 6f 6d 2f 76  73 6c 6f 67 6f 2e 67 69  gn.com/vslogo.gi
    0060 66                                                f

    [8]: OID: 2.5.29.17, Critical: false
    Subject Alternative Name Extension
    Unparsed Extension Value:
    0000 30 20 a4 1e 30 1c 31 1a  30 18 06 03 55 04 03 13  0 ¤.0.1.0...U...
    0010 11 43 6c 61 73 73 33 43  41 32 30 34 38 2d 31 2d  .Class3CA2048-1-
    0020 34 37                                             47

    [9]: OID: 1.3.6.1.5.5.7.1.1, Critical: false
    AccessDescriptions:

-- AccessDescription:
accessMethod:  1.3.6.1.5.5.7.48.1
accessLocation:  uniformResourceIdentifier[6]: http://EVSecure-ocsp.verisign.com
-- AccessDescription END

    [10]: OID: 2.5.29.35, Critical: false
    AuthorityKeyIdentifier [
      keyIdentifier:
        0000 7f d3 65 a7 c2 dd ec bb  f0 30 09 f3 43 39 fa 02  .Óe§ÂÝì»ð0.óC9ú.
        0010 af 33 31 33                                       ¯313
    ]
  ]
]
  Algorithm: [SHA1withRSA, params unparsed, OID = 1.2.840.113549.1.1.5]
  Signature Value:
0000 96 a2 fa 7f e6 3d ed d4  2b ce b7 15 3f c0 72 03  .¢ú.æ=íÔ+Î·.?Àr.
0010 5f 8b ba 16 90 25 f7 c2  83 d8 c7 75 34 63 68 12  _.º..%÷Â.ØÇu4ch.
0020 53 0c 53 89 7b c9 56 09  a7 c3 36 44 4e 0e d0 62  S.S.{ÉV.§Ã6DN.Ðb
0030 62 b3 86 fa e8 a1 9b 34  67 8d 53 22 17 3e fd ac  b³.úè¡.4g.S".>ý¬
0040 ee 67 2e 43 e2 5d 7f 33  84 f2 a2 70 c0 6e 82 97  îg.Câ].3.ò¢pÀn..
0050 c0 34 fd 25 c6 23 7f ed  e6 b0 c5 57 43 84 b2 de  À4ý%Æ#.íæ°ÅWC.²Þ
0060 2d f1 d0 f6 48 1f 14 71  57 b2 ac 31 e1 97 24 23  -ñÐöH..qW²¬1á.$#
0070 c9 13 5d 74 e5 46 ef 09  7c 9e e1 99 31 0a 08 79  É.]tåFï.|.á.1..y
0080 1b 8f 71 9f 17 66 c8 38  cf ee 8c 97 b6 06 b9 73  ..q..fÈ8Ïî..¶.¹s
0090 46 e4 d3 94 c1 e5 60 b5  25 75 2d d9 69 31 ec cd  FäÓ.Áå`µ%u-Ùi1ìÍ
00a0 96 c3 a3 76 fd e8 74 44  ac 12 b9 4d bf 51 e8 b9  .Ã£výètD¬.¹M¿Qè¹
00b0 d4 44 4e 27 cb ae 20 d1  7e 2a 7c b6 63 47 9e 76  ÔDN'Ë® Ñ~*|¶cG.v
00c0 ba 97 d0 16 e7 0b 6c 6d  f7 43 6f 33 0b 29 30 77  º.Ð.ç.lm÷Co3.)0w
00d0 fa 9d f9 f5 4e b8 76 b3  cd 18 b4 f9 20 ef 3d db  ú.ùõN¸v³Í.´ù ï=Û
00e0 e6 ca ad 9b d0 4e d2 87  a9 0d a6 44 73 50 dd 70  æÊ­.ÐNÒ.©.¦DsPÝp
00f0 5b ed ad 7e 4a bc 22 d5  a8 26 e4 c2 85 20 0d d9  [í­~J¼"Õ¨&äÂ. .Ù
]

Domain: connect.btinternet.com

X.509 Certificate:
[
[
  Version: V3
  Subject: CN=connect.btinternet.com,OU=Terms of use at www.verisign.com/rpa (c)05,O=British Telecommunication Plc,L=Watford,ST=-,C=GB
  Signature Algorithm: SHA1withRSA, params unparsed, OID = 1.2.840.113549.1.1.5
  Key: RSA Public Key
            modulus: ba95670d8832c578041e1cb65b77aa3bbebcf0356cb1a45d489ef1ee2e7d385713aff98e24f8c674e239ccbfdaf85955678a0759ccbf1a23c65fca28d35a83c2b93de5606d1f74447d773af7798d6d252b3d0713313542a463862b56aba104ebe60355046ed9357e2ceb420c13432ace2b21d87ca315f1ce2162e163fbd8b63b
    public exponent: 10001

  Validity: [From: Thu Apr 07 01:00:00 GMT+01:00 2011
               To: Tue May 07 00:59:59 GMT+01:00 2013]
  Issuer: CN=VeriSign Class 3 International Server CA - G3,OU=Terms of use at https://www.verisign.com/rpa (c)10,OU=VeriSign Trust Network,O=VeriSign\, Inc.,C=US
  Serial Number: 113893531518050190476253667847696079501

  Extensions: [

    [1]: OID: 2.5.29.19, Critical: false
    BasicConstraints [
      CA: false
      pathLenConstraint: 2147483647
    ]

    [2]: OID: 2.5.29.15, Critical: false
    KeyUsage [
      digitalSignature
      keyEncipherment
    ]

    [3]: OID: 2.5.29.32, Critical: false
    CertificatePolicies [
      Policy Identifier [2.16.840.1.113733.1.7.23.3]
    ]

    [4]: OID: 2.5.29.31, Critical: false
    CRL Distribution Points: [
      [1]
      Distribution Point: [
        Distribution Point Name: [
          uniformResourceIdentifier[6]: http://SVRIntl-G3-crl.verisign.com/SVRIntlG3.crl
        ]
      ]
    ]

    [5]: OID: 2.5.29.37, Critical: false
    Extended Key Usage: [ "1.3.6.1.5.5.7.3.1", "1.3.6.1.5.5.7.3.2", "2.16.840.1.113730.4.1" ]

    [6]: OID: 1.3.6.1.5.5.7.1.1, Critical: false
    AccessDescriptions:

-- AccessDescription:
accessMethod:  1.3.6.1.5.5.7.48.1
accessLocation:  uniformResourceIdentifier[6]: http://ocsp.verisign.com
-- AccessDescription END

-- AccessDescription:
accessMethod:  1.3.6.1.5.5.7.48.2
accessLocation:  uniformResourceIdentifier[6]: http://SVRIntl-G3-aia.verisign.com/SVRIntlG3.cer
-- AccessDescription END

    [7]: OID: 1.3.6.1.5.5.7.1.12, Critical: false
    Unknown Extension
    Unparsed Extension Value:
    0000 30 60 a1 5e a0 5c 30 5a  30 58 30 56 16 09 69 6d  0`¡^ \0Z0X0V..im
    0010 61 67 65 2f 67 69 66 30  21 30 1f 30 07 06 05 2b  age/gif0!0.0...+
    0020 0e 03 02 1a 04 14 4b 6b  b9 28 96 06 0c bb d0 52  ......Kk¹(...»ÐR
    0030 38 9b 29 ac 4b 07 8b 21  05 18 30 26 16 24 68 74  8.)¬K..!..0&.$ht
    0040 74 70 3a 2f 2f 6c 6f 67  6f 2e 76 65 72 69 73 69  tp://logo.verisi
    0050 67 6e 2e 63 6f 6d 2f 76  73 6c 6f 67 6f 31 2e 67  gn.com/vslogo1.g
    0060 69 66                                             if
  ]
]
  Algorithm: [SHA1withRSA, params unparsed, OID = 1.2.840.113549.1.1.5]
  Signature Value:
0000 76 75 b2 f5 d5 8e d6 b1  e3 59 20 ee c5 07 f3 cd  vu²õÕ.Ö±ãY îÅ.óÍ
0010 3d 7a 52 06 63 36 46 dc  91 dc 65 cb fb 69 5f 7d  =zR.c6FÜ.ÜeËûi_}
0020 1d 3a 3a 83 13 be 94 9b  ab d9 83 e6 27 a4 ec c9  .::..¾..«Ù.æ'¤ìÉ
0030 10 42 b3 39 8b 76 c7 02  eb a8 74 75 9f 76 c8 57  .B³9.vÇ.ë¨tu.vÈW
0040 5b 61 d4 6a 27 5a ad 30  9a 8c 5d 00 2e 0a 4b fb  [aÔj'Z­0..]...Kû
0050 0f 6e 67 c4 cf 80 14 43  21 a0 42 72 7e a8 3b 9b  .ngÄÏ..C! Br~¨;.
0060 39 ef aa a4 2b cf 0a bc  4b a6 cb 82 16 0f 4a 1c  9ïª¤+Ï.¼K¦Ë...J.
0070 ad 2f c4 b3 5a ef 82 91  71 bd 95 dc 8f 29 3a 36  ­/Ä³Zï..q½.Ü.):6
0080 f0 10 a3 c5 f2 05 ad 10  8a ab f6 16 51 bf bf 55  ð.£Åò.­..«ö.Q¿¿U
0090 e6 ae 6e 4d 6e 1b d5 5a  94 ef 9b 39 fb 3e 2a 7f  æ®nMn.ÕZ.ï.9û>*.
00a0 49 38 c3 5b 98 dd fe 47  6f b1 b0 48 16 e1 23 af  I8Ã[.ÝþGo±°H.á#¯
00b0 fe be 2c f4 10 f1 11 cf  13 c7 cd 4f 8c d6 53 31  þ¾,ô.ñ.Ï.ÇÍO.ÖS1
00c0 aa 8f 4a 11 3a c3 4c c1  b2 3f 0b af f5 e6 9e 36  ª.J.:ÃLÁ²?.¯õæ.6
00d0 3d dd b4 7d d8 86 95 b1  51 3d 14 93 47 95 3b 73  =Ý´}Ø..±Q=..G.;s
00e0 cd 72 d4 19 bb 0a 1f 9f  43 52 d7 e3 79 cd 7a 5b  ÍrÔ.»...CR×ãyÍz[
00f0 8c 9c fc 78 a4 31 8c 33  df c9 f4 4d 7e 02 52 06  ..üx¤1.3ßÉôM~.R.
]

X.509 Certificate:
[
[
  Version: V3
  Subject: CN=VeriSign Class 3 International Server CA - G3,OU=Terms of use at https://www.verisign.com/rpa (c)10,OU=VeriSign Trust Network,O=VeriSign\, Inc.,C=US
  Signature Algorithm: SHA1withRSA, params unparsed, OID = 1.2.840.113549.1.1.5
  Key: RSA Public Key
            modulus: 99d69c62f015f4819a4108598f139d17c99f51dcdab152efffe341dde0dfc428c6e3ad791f271098b8bb2097c12844410feaa9a852cf4d4e1b8bbbb5c476d9cc5606eeb355202ade158d71cb54c86f17cd8900e4dcffe1c01f6871e9c7292e7ebc3bfce5bbab26548b6690cdf692b9312480bc9e6cd5fc7ed2e14b8cdc42fa444b5ff818b52e30f43d1298d362057354a69ca21dbe52833a0746c43b025621bff2514fd0a69939e9aea53f899b9c7dfe4d60072520f7bbd769832b82934337d983411b6b0bab4a66844f4a8ede7e34998e68d6ca39069b4cb39a484d1346b4582104c4fba04dac2e4b6212e3fb4df6c95100011ffc1e6a812a38e0b94fd62d45
    public exponent: 10001

  Validity: [From: Mon Feb 08 00:00:00 GMT 2010
               To: Fri Feb 07 23:59:59 GMT 2020]
  Issuer: CN=VeriSign Class 3 Public Primary Certification Authority - G5,OU=(c) 2006 VeriSign\, Inc. - For authorized use only,OU=VeriSign Trust Network,O=VeriSign\, Inc.,C=US
  Serial Number: 133067699711757643302127248541276864103

  Extensions: [

    [1]: OID: 2.5.29.19, Critical: true
    BasicConstraints [
      CA: true
      pathLenConstraint: 0
    ]

    [2]: OID: 2.5.29.32, Critical: false
    CertificatePolicies [
      Policy Identifier [2.16.840.1.113733.1.7.23.3]
    ]

    [3]: OID: 2.5.29.15, Critical: true
    KeyUsage [
      keyCertSign
      cRLSign
    ]

    [4]: OID: 1.3.6.1.5.5.7.1.12, Critical: false
    Unknown Extension
    Unparsed Extension Value:
    0000 30 5f a1 5d a0 5b 30 59  30 57 30 55 16 09 69 6d  0_¡] [0Y0W0U..im
    0010 61 67 65 2f 67 69 66 30  21 30 1f 30 07 06 05 2b  age/gif0!0.0...+
    0020 0e 03 02 1a 04 14 8f e5  d3 1a 86 ac 8d 8e 6b c3  .......åÓ..¬..kÃ
    0030 cf 80 6a d4 48 18 2c 7b  19 2e 30 25 16 23 68 74  Ï.jÔH.,{..0%.#ht
    0040 74 70 3a 2f 2f 6c 6f 67  6f 2e 76 65 72 69 73 69  tp://logo.verisi
    0050 67 6e 2e 63 6f 6d 2f 76  73 6c 6f 67 6f 2e 67 69  gn.com/vslogo.gi
    0060 66                                                f

    [5]: OID: 2.5.29.37, Critical: false
    Extended Key Usage: [ "1.3.6.1.5.5.7.3.1", "1.3.6.1.5.5.7.3.2", "2.16.840.1.113730.4.1", "2.16.840.1.113733.1.8.1" ]

    [6]: OID: 1.3.6.1.5.5.7.1.1, Critical: false
    AccessDescriptions:

-- AccessDescription:
accessMethod:  1.3.6.1.5.5.7.48.1
accessLocation:  uniformResourceIdentifier[6]: http://ocsp.verisign.com
-- AccessDescription END

    [7]: OID: 2.5.29.31, Critical: false
    CRL Distribution Points: [
      [1]
      Distribution Point: [
        Distribution Point Name: [
          uniformResourceIdentifier[6]: http://crl.verisign.com/pca3-g5.crl
        ]
      ]
    ]

    [8]: OID: 2.5.29.17, Critical: false
    Subject Alternative Name Extension
    Unparsed Extension Value:
    0000 30 1f a4 1d 30 1b 31 19  30 17 06 03 55 04 03 13  0.¤.0.1.0...U...
    0010 10 56 65 72 69 53 69 67  6e 4d 50 4b 49 2d 32 2d  .VeriSignMPKI-2-
    0020 37                                                7

    [9]: OID: 2.5.29.14, Critical: false
    SubjectKeyIdentifier: [
    0000 d7 9b 7c d8 22 a0 15 f7  dd ad 5f ce 29 9b 58 c3  ×.|Ø" .÷Ý­_Î).XÃ
    0010 bc 46 00 b5                                       ¼F.µ
    ]

    [10]: OID: 2.5.29.35, Critical: false
    AuthorityKeyIdentifier [
      keyIdentifier:
        0000 7f d3 65 a7 c2 dd ec bb  f0 30 09 f3 43 39 fa 02  .Óe§ÂÝì»ð0.óC9ú.
        0010 af 33 31 33                                       ¯313
    ]
  ]
]
  Algorithm: [SHA1withRSA, params unparsed, OID = 1.2.840.113549.1.1.5]
  Signature Value:
0000 71 b5 7d 73 52 4a dd d7  4d 34 2b 2e af 94 46 a5  qµ}sRJÝ×M4+.¯.F¥
0010 49 50 02 4f f8 2f 17 70  f2 13 dc 1f 21 86 aa c2  IP.Oø/.pò.Ü.!.ªÂ
0020 4f 7c 37 3c d4 46 78 ae  5d 78 6f d1 ba 5a bc 10  O|7<ÔFx®]xoÑºZ¼.
0030 ab 58 36 c5 8c 62 15 45  60 17 21 e2 d5 42 a8 77  «X6Å.b.E`.!âÕB¨w
0040 a1 55 d8 43 04 51 f6 6e  ba 48 e6 5d 4c b7 44 d3  ¡UØC.QönºHæ]L·DÓ
0050 3e a4 d5 d6 33 9a 9f 0d  e6 d7 4e 96 44 95 5a 6c  >¤ÕÖ3...æ×N.D.Zl
0060 d6 a3 16 53 0e 98 43 ce  a4 b8 c3 66 7a 05 5c 62  Ö£.S..CÎ¤¸Ãfz.\b
0070 10 e8 1b 12 db 7d 2e 76  50 ff df d7 6b 1b cc 8a  .è..Û}.vPÿß×k.Ì.
0080 cc 71 fa b3 40 56 7c 33  7a 77 94 5b f5 0b 53 fb  Ìqú³@V|3zw.[õ.Sû
0090 0e 5f bc 68 fb af 2a ee  30 37 79 16 93 25 7f 4d  ._¼hû¯*î07y..%.M
00a0 10 ff 57 fb bf 6e 3b 33  21 de 79 dc 86 17 59 2d  .ÿWû¿n;3!ÞyÜ..Y-
00b0 43 64 b7 a6 66 87 ea bc  96 46 19 1a 86 8b 6f d7  Cd·¦f.ê¼.F....o×
00c0 b7 49 00 5b db a3 bf 29  9a ee f7 d3 33 ae a3 f4  ·I.[Û£¿).î÷Ó3®£ô
00d0 9e 4c ca 5e 69 d4 1b ad  b7 90 77 6a d8 59 6f 79  .LÊ^iÔ.­·.wjØYoy
00e0 ab 01 fa 55 f0 8a 21 66  e5 65 6e fd 7c d3 df 1e  «.úUð.!fåený|Óß.
00f0 eb 7e 3f 06 90 fb 19 0b  d3 06 02 1b 78 43 99 a8  ë~?..û..Ó...xC.¨
]

X.509 Certificate:
[
[
  Version: V3
  Subject: CN=VeriSign Class 3 Public Primary Certification Authority - G5,OU=(c) 2006 VeriSign\, Inc. - For authorized use only,OU=VeriSign Trust Network,O=VeriSign\, Inc.,C=US
  Signature Algorithm: SHA1withRSA, params unparsed, OID = 1.2.840.113549.1.1.5
  Key: RSA Public Key
            modulus: af240808297a359e600caae74b3b4edc7cbc3c451cbb2be0fe2902f95708a364851527f5f1adc831895d22e82aaaa642b38ff8b955b7b1b74bb3fe8f7e0757ecef43db66621561cf600da4d8def8e0c362083d5413eb49ca59548526e52b8f1b9febf5a191c23349d843636a524bd28fe870514dd189697bc770f6b3dc1274db7b5d4b56d396bf1577a1b0f4a225f2af1c926718e5f40604ef90b9e400e4dd3ab519ff02baf43ceee08beb378becf4d7acf2f6f03dafdd759133191d1c40cb7424192193d914feac2a52c78fd50449e48d6347883c6983cbfe47bd2b7e4fc595ae0e9dd4d143c06773e314087ee53f9f73b8330acf5d3f3487968aee53e82515
    public exponent: 10001

  Validity: [From: Wed Nov 08 00:00:00 GMT 2006
               To: Sun Nov 07 23:59:59 GMT 2021]
  Issuer: OU=Class 3 Public Primary Certification Authority,O=VeriSign\, Inc.,C=US
  Serial Number: 49248466687453522052688216172288342269

  Extensions: [

    [1]: OID: 2.5.29.19, Critical: true
    BasicConstraints [
      CA: true
      pathLenConstraint: 2147483647
    ]

    [2]: OID: 2.5.29.31, Critical: false
    CRL Distribution Points: [
      [1]
      Distribution Point: [
        Distribution Point Name: [
          uniformResourceIdentifier[6]: http://crl.verisign.com/pca3.crl
        ]
      ]
    ]

    [3]: OID: 2.5.29.15, Critical: true
    KeyUsage [
      keyCertSign
      cRLSign
    ]

    [4]: OID: 2.5.29.32, Critical: false
    CertificatePolicies [
      Policy Identifier [2.5.29.32.0]
    ]

    [5]: OID: 2.5.29.14, Critical: false
    SubjectKeyIdentifier: [
    0000 7f d3 65 a7 c2 dd ec bb  f0 30 09 f3 43 39 fa 02  .Óe§ÂÝì»ð0.óC9ú.
    0010 af 33 31 33                                       ¯313
    ]

    [6]: OID: 1.3.6.1.5.5.7.1.12, Critical: false
    Unknown Extension
    Unparsed Extension Value:
    0000 30 5f a1 5d a0 5b 30 59  30 57 30 55 16 09 69 6d  0_¡] [0Y0W0U..im
    0010 61 67 65 2f 67 69 66 30  21 30 1f 30 07 06 05 2b  age/gif0!0.0...+
    0020 0e 03 02 1a 04 14 8f e5  d3 1a 86 ac 8d 8e 6b c3  .......åÓ..¬..kÃ
    0030 cf 80 6a d4 48 18 2c 7b  19 2e 30 25 16 23 68 74  Ï.jÔH.,{..0%.#ht
    0040 74 70 3a 2f 2f 6c 6f 67  6f 2e 76 65 72 69 73 69  tp://logo.verisi
    0050 67 6e 2e 63 6f 6d 2f 76  73 6c 6f 67 6f 2e 67 69  gn.com/vslogo.gi
    0060 66                                                f

    [7]: OID: 1.3.6.1.5.5.7.1.1, Critical: false
    AccessDescriptions:

-- AccessDescription:
accessMethod:  1.3.6.1.5.5.7.48.1
accessLocation:  uniformResourceIdentifier[6]: http://ocsp.verisign.com
-- AccessDescription END

    [8]: OID: 2.5.29.37, Critical: false
    Extended Key Usage: [ "1.3.6.1.5.5.7.3.1", "1.3.6.1.5.5.7.3.2", "1.3.6.1.5.5.7.3.3", "2.16.840.1.113730.4.1", "2.16.840.1.113733.1.8.1" ]
  ]
]
  Algorithm: [SHA1withRSA, params unparsed, OID = 1.2.840.113549.1.1.5]
  Signature Value:
0000 13 02 dd f8 e8 86 00 f2  5a f8 f8 20 0c 59 88 62  ..Ýøè..òZøø .Y.b
0010 07 ce ce f7 4e f9 bb 59  a1 98 e5 e1 38 dd 4e bc  .ÎÎ÷Nù»Y¡.åá8ÝN¼
0020 66 18 d3 ad eb 18 f2 0d  c9 6d 3e 4a 94 20 c3 3c  f.Ó­ë.ò.Ém>J. Ã<
0030 ba bd 65 54 c6 af 44 b3  10 ad 2c 6b 3e ab d7 07  º½eTÆ¯D³.­,k>«×.
0040 b6 b8 81 63 c5 f9 5e 2e  e5 2a 67 ce cd 33 0c 2a  ¶¸.cÅù^.å*gÎÍ3.*
0050 d7 89 56 03 23 1f b3 be  e8 3a 08 59 b4 ec 45 35  ×.V.#.³¾è:.Y´ìE5
0060 f7 8a 5b ff 66 cf 50 af  c6 6d 57 8d 19 78 b7 b9  ÷.[ÿfÏP¯ÆmW..x·¹
0070 a2 d1 57 ea 1f 9a 4b af  ba c9 8e 12 7e c6 bd ff  ¢ÑWê..K¯ºÉ..~Æ½ÿ
]



2013-02-21 14:00:30 
SubTestID: WiFiGlobalTests.4: 
	Part: 4/7
	Desc:BT WiFi Login Status.
	Result: OK
	Trace: 
Attempting to access: https://www.btopenzone.com:8443
About to connect: time=4ms
Completed connect: time=243ms
About to read input stream: time=243ms
Finished reading input stream: time=274ms

Received response code:302 Moved Temporarily

Being redirected to: https://www.btopenzone.com:8443/secure/home

Attempting to access: https://www.btopenzone.com:8443/secure/home
About to connect: time=277ms
Completed connect: time=278ms
About to read input stream: time=278ms
Finished reading input stream: time=306ms

Received response code:302 Moved Temporarily

Being redirected to: https://connect.btinternet.com:443/TBBWireless/jsp/TBBStatus.jsp;jsessionid=71lk9vtge3nba?xhtmlLogoff=https://www.btopenzone.com:8443/accountLogoff/home&username=clare.l.patten@btinternet.com

Attempting to access: https://connect.btinternet.com:443/TBBWireless/jsp/TBBStatus.jsp;jsessionid=71lk9vtge3nba?xhtmlLogoff=https://www.btopenzone.com:8443/accountLogoff/home&username=clare.l.patten@btinternet.com
About to connect: time=311ms
Completed connect: time=814ms
About to read input stream: time=814ms
Finished reading input stream: time=868ms

Received response code:200 OK





Page Source:
<!DOCTYPE html PUBLIC "-//W3C//DTD XHTML 1.0 Transitional//EN" "http://www.w3.org/TR/xhtml1/DTD/xhtml1-transitional.dtd">
<html xmlns="http://www.w3.org/1999/xhtml" xml:lang="en">
<head>
<meta http-equiv="Content-Type" content="text/html; charset=utf-8" />
<meta name="title" content="BT Wi-fi" />
<meta name="robots" content="index, follow" />
<meta name="description" content="The worlds largest Wi-fi Community" />
<meta name="keywords" content="fon, fonera, internet, wifi, wireless, inalambrico, wi-fi, inalambrica" />
<title>BT | WIFI</title>
<!--<link rel="shortcut icon" href="https://www.btfon.com/favicon.ico" />-->
<link rel="stylesheet" type="text/css" media="screen" href="/TBBWireless/css/btfon.css" />
<!-- Start of additional stylesheet -->
<link rel="stylesheet" type="text/css" media="screen" href="/TBBWireless/css/additions.css" />
<!-- End of additional stylesheet -->
<!--[if lt IE 9]>
  <link rel="stylesheet" type="text/css" href="css/ie8-ie7.css" />
<![endif]-->
<script language="javascript" type="text/javascript">
   window.onload = function() {
    document.getElementById("search_field").focus();
}
</script>
</head>
<body>
<div id="home" class="container_login">
  <div id="header">

	<div class="float_right" style="padding-top:2px;"><img src="/TBBWireless/img/Easy-internet-access.jpg" alt="Easy-internet-access" width="176" height="18" title="Easy-internet-access"/></div>
    <img src="/TBBWireless/img/header_btfon_login.png" alt="You're now logged in with BT Wi-fi" width="106" height="48" title="Logged in with BT Wi-fi" style="padding-top:1px; padding-left:0px;"/>
	
	<!-- welcome -->
	<div style="font-family:Arial; font-size:22px; font-weight:bold; color:#058;text-align:left;padding-top:30px">You're now logged in</div>
	<div style="font-family:Arial; font-size:14px; font-weight:bold; color:#058;text-align:right;">
	<a href="https://www.btopenzone.com:8443/accountLogoff/home" class="wlink_close" title="Move to the LogOff window" onclick="s_linkTrackVars='eVar19,prop50';s_eVar19='BT.com|Con|BT Infinity|Link|Find out more|Disconnect';s_prop50='BT.com|Con|BT Infinity|Link|Find out more|Disconnect';s_linkType='o';s_linkName='BT.com|Con|BT Infinity|Link|Find out more|Disconnect';s_lnk=s_co(this);s_gs('btcomdev');">Disconnect from BT Wi-fi</a>
	</div>
    <div style="padding-top:10px"><img src="/TBBWireless/img/Gradient-Line.jpg" width="895" title="Gradient-Line" /></div>


  <div id="google_websearch">
      <form name="google_search" action="https://search.bt.com/result" method="get" accept-charset="utf-8" target="_blank">
        <input type="hidden" value="btfon" name="channel" />
        <input type="text" name="p" id="search_field" autocomplete="off" class="input noFocus" maxlength="100" size="70" style="color: #999; height: 32px;" />
        <input type="submit" name="submit" value="Search" class="search" src="/TBBWireless/img/btn_search.jpg" alt="Search" title="Search" id="search_bttn" onclick="s_linkTrackVars='eVar19,prop50';s_eVar19='BT.com|Con|BT Infinity|Link|Find out more|Search';s_prop50='BT.com|Con|BT Infinity|Link|Find out more|Search';s_linkType='o';s_linkName='BT.com|Con|BT Infinity|Link|Find out more|Search';s_lnk=s_co(this);s_gs('btcomdev');" />
        <div class="google_powered"><span class="text" style="font-size:0.9em; margin-left:6px;">powered by</span><span class="logo" title="Google &trade;"></span></div>
      </form>
    

  </div>
  </div>
  <!--<div class="clear"></div>-->
  <br />

  <div class="content" id="index">
    <div class="column1">
      <div class="offer">
        <div class="inner"> <a href="https://www.productsandservices.bt.com/consumerProducts/displayTopic.do?topicId=34344" target="_blank"><img src="/TBBWireless/img/btn_btcreditcard.jpg" alt="Find out more" width="300" height="250" title="Upgrade to BT Infinity" /></a> </div>
      </div>
    </div>
    <div class="column2">
      <div class="jwire">
        <div class="inner">
          <!-- Begin JiWire Ad Tag -->
          <!-- This tag is intended to be run in Post Auth after the user is authenticated to the Internet. -->
          <!--
		  <script type="text/javascript" language="javascript">
				document.write('<script language="javascript" type="text/javascript" src="https://tags-uk.jiwire.com/?netid=200&lid=Post_Auth_1&prid=[PRID]&embed=1"></scr'+'ipt>');
          </script>
          <noscript>
          <iframe src="https://tags-uk.jiwire.com/?netid=200&lid=Post_Auth_1&prid=[PRID]" scrolling="no" frameborder="0" width="300" height="250"></iframe>
          </noscript>
		  -->
		  <a href="https://www.productsandservices.bt.com/consumerProducts/displayTopic.do?topicId=30549&s_cid=con_btwifi_postauth_downloadapp" target="_blank"><img src="/TBBWireless/img/BTWifi_App_FINAL.JPG" alt="Find out more" width="300" height="250" title="Download the BT Wi-fi app" /></a>
          <!-- End JiWire Ad Tag -->
        </div>
      </div>
    </div>
  </div>
  <!--
  <div style="color:#9f9f9f; padding-left:530px; padding-right:150px; padding-top:260px;">
   Wi-fi Ads by JiWire <a href="https://tags.jiwire.com/advertisers/landing.php?netid=200=&region=uk&pa=1" style="color:#9f9f9f; text-decoration:underline;" target="_blank">Advertise Here</a> 
  </div> -->

  <div class="clear"><!-- clearer --></div>
  <div id="footer">

  </div>
  <div class="clear"><!-- clearer --></div>

  <!-- MIS Related Codes Start -->

  <script language="javascript" type="text/javascript">


/* SiteCatalyst code version:G.14.
Copyright 1997-2008 Omniture, Inc.
More info available at http://www.omniture.com */

var s_pageName="BT.com|Con|BT Infinity|Link|Find out more";
var s_channel="Consumer";
var s_hier1="BT.com,Con,BT Infinity,Link,Find out more";
var s_prop36="Con:Search";
var s_prop37="Con";
var s_prop38="Con:BT Infinity";
var s_prop40="Con:BT Infinity:Search";
var s_eVar27="s_prop16";
var s_eVar29="s_prop8";
var s_eVar36="s_prop9";
var s_eVar37="s_prop37";
var s_eVar38="s_prop38";
var s_eVar39="s_prop39";
var s_eVar40="s_prop40";

</script>
  <script type="text/javascript" src="/static/includes/appsyouraccount/js/s_code_remote.js" language="javascript"></script>

  <!-- MIS Related Codes End -->

</div>
<script type="text/javascript">
	var gaJsHost = (("https:" == document.location.protocol) ? "https://ssl." :	"http://www.");
	document.write(unescape("%3Cscript src='" + gaJsHost + "google-analytics.com/ga.js' type='text/javascript'%3E%3C/script%3E"));
	</script>
<script type="text/javascript">
	var pageTracker = _gat._getTracker("UA-5131934-54");
	pageTracker._trackPageview();
	</script>

<!-- Start of StatCounter Code -->
<script type="text/javascript">
	var sc_project=2984302;
	var sc_invisible=1;
	var sc_partition=32;
	var sc_security="e77549bf";
	var sc_https=1;
	</script>
<script type="text/javascript" src="https://secure.statcounter.com/counter/counter_xhtml.js"></script>
<noscript>
<div class="statcounter"><a class="statcounter" href="http://www.statcounter.com/"><img class="statcounter" src="https://c33.statcounter.com/2984302/0/e77549bf/0/" alt="web tracker" /></a></div>
</noscript>
<!-- End of StatCounter Code -->


<script type="text/javascript" src="https://ajax.googleapis.com/ajax/libs/jquery/1.4/jquery.min.js"></script>
<script>
jQuery.noConflict();
</script>
<!--<script type="text/javascript" src="js/app.js"></script>
<script defer type="text/javascript" src="https://www.btfon.com/js/overlibmws.js"></script>
<script type="text/javascript" src="https://www.btfon.com/sf/prototype/js/prototype.js"></script>
<script type="text/javascript" src="https://www.btfon.com/sf/prototype/js/scriptaculous.js"></script>
-->
<!-- Start of additional jscript -->
<!-- End of additional jscript -->
</body>
</html>


2013-02-21 14:01:00 
SubTestID: WiFiGlobalTests.5: 
	Part: 5/7
	Desc:Internet accessiblity.
	Result: Fail
	Trace: 
Attempting to access: http://www.google.co.uk
About to connect: time=1ms

Couldn't get response from getInputStream / convertStreamToString:

java.net.SocketTimeoutException: Connection timed out
Time=30100ms


2013-02-21 14:01:11 
SubTestID: WiFiGlobalTests.6: 
	Part: 6/7
	Desc:End2EndPerformance
	Result: Fail
	Trace: Speed test failed: java.net.SocketTimeoutException: Connection timed out


2013-02-21 14:01:35 
SubTestID: WiFiGlobalTests.7: 
	Part: 7/7
	Desc:Packet Size Test
	Result: Fail
	Trace: No ping tests on any of the tested packet sizes are working.

ping -c 3 -s 83 8.8.8.8 
PING 8.8.8.8 (8.8.8.8) 83(111) bytes of data.

--- 8.8.8.8 ping statistics ---
3 packets transmitted, 0 received, 100% packet loss, time 2004ms



ping -c 3 -s 84 8.8.8.8 
PING 8.8.8.8 (8.8.8.8) 84(112) bytes of data.

--- 8.8.8.8 ping statistics ---
3 packets transmitted, 0 received, 100% packet loss, time 2002ms



2013-02-21 14:01:35 
Test Overall Result: : 
Complete...Fail
Trace: No Trace

2013-02-21 14:01:35 com.bt.mnie.wificonnectiontester.BTWiFiConnectionTesterActivity$3: Test Complete.
